[
  {
    "query": "testquery1",
    "docs": [
      {
        "docID": "testId",
        "title": "testtitle11",
        "url": "testlink11",
        "rank": 0
      },
      {
        "docID": "testId",
        "title": "testtitle12",
        "url": "testlink12",
        "rank": 0
      }
    ]
  },
  {
    "query": "test2query",
    "docs": [
      {
        "docID": "testId",
        "title": "testtitle21",
        "url": "testlink21",
        "rank": 0
      },
      {
        "docID": "testId",
        "title": "testtitle22",
        "url": "testlink22",
        "rank": 0
      }
    ]
  },
  {
    "query": "testquery1",
    "docs": [
      {
        "docID": "testId",
        "title": "testtitle11",
        "url": "testlink11",
        "rank": 0
      },
      {
        "docID": "testId",
        "title": "testtitle12",
        "url": "testlink12",
        "rank": 0
      }
    ]
  },
  {
    "query": "<b>test545query</b>",
    "docs": [
      {
        "docID": "testId",
        "title": "testtitle21",
        "url": "testlink21",
        "rank": 0
      },
      {
        "docID": "testId",
        "title": "testtitle22",
        "url": "testlink22",
        "rank": 0
      }
    ]
  },
  {
    "query": "testquery1",
    "docs": [
      {
        "docID": "testId",
        "title": "testtitle11",
        "url": "testlink11",
        "rank": 0
      },
      {
        "docID": "testId",
        "title": "testtitle12",
        "url": "testlink12",
        "rank": 0
      }
    ]
  },
  {
    "query": "test2query",
    "docs": [
      {
        "docID": "testId",
        "title": "testtitle21",
        "url": "testlink21",
        "rank": 0
      },
      {
        "docID": "testId",
        "title": "testtitle22",
        "url": "testlink22",
        "rank": 0
      }
    ]
  },
  {
    "query": "testquery1",
    "docs": [
      {
        "docID": "testId",
        "title": "testtitle11",
        "url": "testlink11",
        "rank": 0
      },
      {
        "docID": "testId",
        "title": "testtitle12",
        "url": "testlink12",
        "rank": 0
      }
    ]
  },
  {
    "query": "test2query",
    "docs": [
      {
        "docID": "testId",
        "title": "testtitle21",
        "url": "testlink21",
        "rank": 0
      },
      {
        "docID": "testId",
        "title": "testtitle22",
        "url": "testlink22",
        "rank": 0
      }
    ]
  },
  {
    "query": "testquery1",
    "docs": [
      {
        "docID": "testId",
        "title": "testtitle11",
        "url": "testlink11",
        "rank": 0
      },
      {
        "docID": "testId",
        "title": "testtitle12",
        "url": "testlink12",
        "rank": 0
      }
    ]
  },
  {
    "query": "test2query",
    "docs": [
      {
        "docID": "testId",
        "title": "testtitle21",
        "url": "testlink21",
        "rank": 0
      },
      {
        "docID": "testId",
        "title": "testtitle22",
        "url": "testlink22",
        "rank": 0
      }
    ]
  },
  {
    "query": "testquery1",
    "docs": [
      {
        "docID": "testId",
        "title": "testtitle11",
        "url": "testlink11",
        "rank": 0
      },
      {
        "docID": "testId",
        "title": "testtitle12",
        "url": "testlink12",
        "rank": 0
      }
    ]
  },
  {
    "query": "test2query",
    "docs": [
      {
        "docID": "testId",
        "title": "testtitle21",
        "url": "testlink21",
        "rank": 0
      },
      {
        "docID": "testId",
        "title": "testtitle22",
        "url": "testlink22",
        "rank": 0
      }
    ]
  },
  {
    "query": "testquery1",
    "docs": [
      {
        "docID": "testId",
        "title": "testtitle11",
        "url": "testlink11",
        "rank": 0
      },
      {
        "docID": "testId",
        "title": "testtitle12",
        "url": "testlink12",
        "rank": 0
      }
    ]
  },
  {
    "query": "test2query",
    "docs": [
      {
        "docID": "testId",
        "title": "testtitle21",
        "url": "testlink21",
        "rank": 0
      },
      {
        "docID": "testId",
        "title": "testtitle22",
        "url": "testlink22",
        "rank": 0
      }
    ]
  },
  {
    "query": "testquery1",
    "docs": [
      {
        "docID": "testId",
        "title": "testtitle11",
        "url": "testlink11",
        "rank": 0
      },
      {
        "docID": "testId",
        "title": "testtitle12",
        "url": "testlink12",
        "rank": 0
      }
    ]
  },
  {
    "query": "test2query",
    "docs": [
      {
        "docID": "testId",
        "title": "testtitle21",
        "url": "testlink21",
        "rank": 0
      },
      {
        "docID": "testId",
        "title": "testtitle22",
        "url": "testlink22",
        "rank": 0
      }
    ]
  },
  {
    "query": "testquery1",
    "docs": [
      {
        "docID": "testId",
        "title": "testtitle11",
        "url": "testlink11",
        "rank": 0
      },
      {
        "docID": "testId",
        "title": "testtitle12",
        "url": "testlink12",
        "rank": 0
      }
    ]
  },
  {
    "query": "test2query",
    "docs": [
      {
        "docID": "testId",
        "title": "testtitle21",
        "url": "testlink21",
        "rank": 0
      },
      {
        "docID": "testId",
        "title": "testtitle22",
        "url": "testlink22",
        "rank": 0
      }
    ]
  },
  {
    "query": "testquery1",
    "docs": [
      {
        "docID": "testId",
        "title": "testtitle11",
        "url": "testlink11",
        "rank": 0
      },
      {
        "docID": "testId",
        "title": "testtitle12",
        "url": "testlink12",
        "rank": 0
      }
    ]
  },
  {
    "query": "test2query",
    "docs": [
      {
        "docID": "testId",
        "title": "testtitle21",
        "url": "testlink21",
        "rank": 0
      },
      {
        "docID": "testId",
        "title": "testtitle22",
        "url": "testlink22",
        "rank": 0
      }
    ]
  }
]